\relax 
\@writefile{toc}{\contentsline {section}{\numberline {1}Introduction}{1}}
\newlabel{s:intro}{{1}{1}}
\@writefile{toc}{\contentsline {section}{\numberline {2}Methods}{1}}
\newlabel{s:methods}{{2}{1}}
\@writefile{toc}{\contentsline {subsection}{\numberline {2.1}The Khepera II}{1}}
\@writefile{lof}{\contentsline {figure}{\numberline {1}{\ignorespaces Schematic of the Khepera II robot}}{2}}
\newlabel{fig:khepera2}{{1}{2}}
\@writefile{toc}{\contentsline {subsection}{\numberline {2.2}Internal modelling of location}{2}}
\newlabel{eq:odometry}{{1}{2}}
\@writefile{toc}{\contentsline {subsection}{\numberline {2.3}Finding the nearest obstacle}{2}}
\@writefile{toc}{\contentsline {subsection}{\numberline {2.4}Following an obstacle}{3}}
\newlabel{eq:p_control}{{2}{3}}
\newlabel{eq:obstacle}{{3}{3}}
\newlabel{eq:obstacle_narrow}{{4}{3}}
\newlabel{eq:min_speed}{{5}{3}}
\newlabel{eq:is_stuck_mode}{{6}{4}}
\newlabel{eq:is_stuck}{{7}{4}}
\@writefile{toc}{\contentsline {subsection}{\numberline {2.5}Homing}{4}}
\@writefile{lot}{\contentsline {table}{\numberline {1}{\ignorespaces  Robot control constants}}{5}}
\newlabel{tbl:parameters}{{1}{5}}
\@writefile{toc}{\contentsline {section}{\numberline {3}Results and discussion}{5}}
\newlabel{s:results}{{3}{5}}
\@writefile{toc}{\contentsline {subsection}{\numberline {3.1}Subjective evaluation}{5}}
\@writefile{lof}{\contentsline {figure}{\numberline {2}{\ignorespaces Trajectory following a tunnel-like object}}{6}}
\@writefile{lof}{\contentsline {subfigure}{\numberline{(a)}{\ignorespaces {After one lap}}}{6}}
\@writefile{lof}{\contentsline {subfigure}{\numberline{(b)}{\ignorespaces {After multiple laps}}}{6}}
\newlabel{fig:tunnel}{{2}{6}}
\@writefile{lof}{\contentsline {figure}{\numberline {3}{\ignorespaces Trajectory following a circular object}}{6}}
\@writefile{lof}{\contentsline {subfigure}{\numberline{(a)}{\ignorespaces {After one lap}}}{6}}
\@writefile{lof}{\contentsline {subfigure}{\numberline{(b)}{\ignorespaces {After multiple laps}}}{6}}
\newlabel{fig:circle}{{3}{6}}
\@writefile{toc}{\contentsline {subsection}{\numberline {3.2}Odometry accuracy}{6}}
\@writefile{lof}{\contentsline {figure}{\numberline {4}{\ignorespaces Trajectory following a concave object}}{7}}
\@writefile{lof}{\contentsline {subfigure}{\numberline{(a)}{\ignorespaces {After one lap}}}{7}}
\@writefile{lof}{\contentsline {subfigure}{\numberline{(b)}{\ignorespaces {After multiple laps}}}{7}}
\newlabel{fig:concave}{{4}{7}}
\@writefile{lof}{\contentsline {figure}{\numberline {5}{\ignorespaces Trajectory following a straight object}}{7}}
\newlabel{fig:straight}{{5}{7}}
\@writefile{lof}{\contentsline {figure}{\numberline {6}{\ignorespaces Trajectory following a maze}}{8}}
\@writefile{lof}{\contentsline {subfigure}{\numberline{(a)}{\ignorespaces {After one lap}}}{8}}
\@writefile{lof}{\contentsline {subfigure}{\numberline{(b)}{\ignorespaces {After multiple laps}}}{8}}
\newlabel{fig:maze}{{6}{8}}
\@writefile{lot}{\contentsline {table}{\numberline {2}{\ignorespaces  Accuracy of odometry over time over twenty 100 seconds simulations}}{8}}
\newlabel{tbl:odometry}{{2}{8}}
\@writefile{lof}{\contentsline {figure}{\numberline {7}{\ignorespaces  Forward Motion Accuracy}}{9}}
\newlabel{fig:movement_accuracy}{{7}{9}}
\@writefile{lof}{\contentsline {subfigure}{\numberline{(a)}{\ignorespaces {Short Forward Motion}}}{9}}
\@writefile{lof}{\contentsline {subfigure}{\numberline{(b)}{\ignorespaces {Long Forward Motion}}}{9}}
\@writefile{lof}{\contentsline {figure}{\numberline {8}{\ignorespaces  Rotation Accuracy}}{10}}
\newlabel{fig:rotation_accuracy}{{8}{10}}
\@writefile{lof}{\contentsline {subfigure}{\numberline{(a)}{\ignorespaces {Short Rotation}}}{10}}
\@writefile{lof}{\contentsline {subfigure}{\numberline{(b)}{\ignorespaces {Long Rotation}}}{10}}
\@writefile{toc}{\contentsline {section}{\numberline {4}Conclusion}{11}}
\newlabel{s:conclusion}{{4}{11}}
